<mxfile host="app.diagrams.net" modified="2023-02-11T18:41:40.371Z" agent="5.0 (Macintosh; Intel Mac OS X 10_15_7) AppleWebKit/605.1.15 (KHTML, like Gecko) Version/16.2 Safari/605.1.15" etag="tFsQ-O1bITxVnm6yZOcY" version="20.8.20" type="gitlab">
  <diagram name="Страница 1" id="D1oxjKaSYD_odIyEgQtI">
    <mxGraphModel dx="1306" dy="870" grid="1" gridSize="10" guides="1" tooltips="1" connect="1" arrows="1" fold="1" page="1" pageScale="1" pageWidth="827" pageHeight="1169" math="0" shadow="0">
      <root>
        <mxCell id="0" />
        <mxCell id="1" parent="0" />
        <mxCell id="ycxKqdY8osq5qBcFS2NJ-55" value="" style="rounded=1;whiteSpace=wrap;html=1;dashed=1;" parent="1" vertex="1">
          <mxGeometry x="59" y="720" width="670" height="503" as="geometry" />
        </mxCell>
        <mxCell id="ycxKqdY8osq5qBcFS2NJ-52" value="" style="rounded=1;whiteSpace=wrap;html=1;dashed=1;" parent="1" vertex="1">
          <mxGeometry x="59" y="1272.5" width="210" height="120.5" as="geometry" />
        </mxCell>
        <mxCell id="ycxKqdY8osq5qBcFS2NJ-38" value="" style="rounded=1;whiteSpace=wrap;html=1;" parent="1" vertex="1">
          <mxGeometry x="454" y="855.5" width="260" height="245" as="geometry" />
        </mxCell>
        <mxCell id="ycxKqdY8osq5qBcFS2NJ-34" value="" style="rounded=1;whiteSpace=wrap;html=1;" parent="1" vertex="1">
          <mxGeometry x="99" y="783" width="260" height="310" as="geometry" />
        </mxCell>
        <mxCell id="ycxKqdY8osq5qBcFS2NJ-11" value="" style="rounded=1;whiteSpace=wrap;html=1;" parent="1" vertex="1">
          <mxGeometry x="540" y="80" width="200" height="250" as="geometry" />
        </mxCell>
        <mxCell id="ycxKqdY8osq5qBcFS2NJ-5" value="" style="rounded=1;whiteSpace=wrap;html=1;" parent="1" vertex="1">
          <mxGeometry x="40" y="80" width="200" height="150" as="geometry" />
        </mxCell>
        <mxCell id="ycxKqdY8osq5qBcFS2NJ-6" value="Граф &lt;br&gt;эксперимента&amp;nbsp;&lt;br&gt;rev 0" style="html=1;" parent="1" vertex="1">
          <mxGeometry x="85" y="130" width="110" height="50" as="geometry" />
        </mxCell>
        <mxCell id="ycxKqdY8osq5qBcFS2NJ-9" value="Git" style="text;align=center;fontStyle=1;verticalAlign=middle;spacingLeft=3;spacingRight=3;strokeColor=none;rotatable=0;points=[[0,0.5],[1,0.5]];portConstraint=eastwest;" parent="1" vertex="1">
          <mxGeometry x="30" y="90" width="80" height="26" as="geometry" />
        </mxCell>
        <mxCell id="ycxKqdY8osq5qBcFS2NJ-10" value="" style="endArrow=open;endFill=1;endSize=12;html=1;rounded=0;entryX=0;entryY=0.5;entryDx=0;entryDy=0;exitX=1;exitY=0.5;exitDx=0;exitDy=0;" parent="1" source="ycxKqdY8osq5qBcFS2NJ-6" target="ycxKqdY8osq5qBcFS2NJ-12" edge="1">
          <mxGeometry width="160" relative="1" as="geometry">
            <mxPoint x="240" y="160" as="sourcePoint" />
            <mxPoint x="400" y="160" as="targetPoint" />
          </mxGeometry>
        </mxCell>
        <mxCell id="ycxKqdY8osq5qBcFS2NJ-12" value="Граф &lt;br&gt;эксперимента&amp;nbsp;&lt;br&gt;rev 0" style="html=1;" parent="1" vertex="1">
          <mxGeometry x="585" y="130" width="110" height="50" as="geometry" />
        </mxCell>
        <mxCell id="ycxKqdY8osq5qBcFS2NJ-13" value="Researcher 1" style="text;align=center;fontStyle=1;verticalAlign=middle;spacingLeft=3;spacingRight=3;strokeColor=none;rotatable=0;points=[[0,0.5],[1,0.5]];portConstraint=eastwest;" parent="1" vertex="1">
          <mxGeometry x="554" y="90" width="80" height="26" as="geometry" />
        </mxCell>
        <mxCell id="ycxKqdY8osq5qBcFS2NJ-14" value="" style="rounded=1;whiteSpace=wrap;html=1;" parent="1" vertex="1">
          <mxGeometry x="300" y="360" width="200" height="320" as="geometry" />
        </mxCell>
        <mxCell id="ycxKqdY8osq5qBcFS2NJ-15" value="Граф &lt;br&gt;эксперимента&amp;nbsp;&lt;br&gt;rev 0" style="html=1;" parent="1" vertex="1">
          <mxGeometry x="345" y="410" width="110" height="50" as="geometry" />
        </mxCell>
        <mxCell id="ycxKqdY8osq5qBcFS2NJ-16" value="Researcher 2" style="text;align=center;fontStyle=1;verticalAlign=middle;spacingLeft=3;spacingRight=3;strokeColor=none;rotatable=0;points=[[0,0.5],[1,0.5]];portConstraint=eastwest;" parent="1" vertex="1">
          <mxGeometry x="314" y="370" width="80" height="26" as="geometry" />
        </mxCell>
        <mxCell id="ycxKqdY8osq5qBcFS2NJ-17" value="" style="endArrow=open;endFill=1;endSize=12;html=1;rounded=0;entryX=0;entryY=0.5;entryDx=0;entryDy=0;exitX=1;exitY=0.75;exitDx=0;exitDy=0;" parent="1" source="ycxKqdY8osq5qBcFS2NJ-6" target="ycxKqdY8osq5qBcFS2NJ-15" edge="1">
          <mxGeometry width="160" relative="1" as="geometry">
            <mxPoint x="240" y="210" as="sourcePoint" />
            <mxPoint x="440" y="359" as="targetPoint" />
          </mxGeometry>
        </mxCell>
        <mxCell id="ycxKqdY8osq5qBcFS2NJ-18" value="Граф &lt;br&gt;эксперимента&amp;nbsp;&lt;br&gt;rev 2.1" style="html=1;" parent="1" vertex="1">
          <mxGeometry x="345" y="480" width="110" height="50" as="geometry" />
        </mxCell>
        <mxCell id="ycxKqdY8osq5qBcFS2NJ-19" value="Граф &lt;br&gt;эксперимента&amp;nbsp;&lt;br&gt;rev 1.1" style="html=1;" parent="1" vertex="1">
          <mxGeometry x="585" y="240" width="110" height="50" as="geometry" />
        </mxCell>
        <mxCell id="ycxKqdY8osq5qBcFS2NJ-20" value="При редактировании сохраняются все свойства графа эксперимента" style="text;html=1;strokeColor=none;fillColor=none;align=center;verticalAlign=middle;whiteSpace=wrap;rounded=0;" parent="1" vertex="1">
          <mxGeometry x="410" y="190" width="215" height="30" as="geometry" />
        </mxCell>
        <mxCell id="ycxKqdY8osq5qBcFS2NJ-23" value="" style="endArrow=classic;html=1;rounded=0;entryX=0.5;entryY=0;entryDx=0;entryDy=0;exitX=0.5;exitY=1;exitDx=0;exitDy=0;" parent="1" source="ycxKqdY8osq5qBcFS2NJ-12" target="ycxKqdY8osq5qBcFS2NJ-19" edge="1">
          <mxGeometry width="50" height="50" relative="1" as="geometry">
            <mxPoint x="390" y="220" as="sourcePoint" />
            <mxPoint x="440" y="170" as="targetPoint" />
          </mxGeometry>
        </mxCell>
        <mxCell id="ycxKqdY8osq5qBcFS2NJ-25" value="Используем гит как инструмент для получения разных версий графа, с помощью чего сами выделяем дельту (дельта - своя, mldev)" style="text;html=1;strokeColor=none;fillColor=none;align=center;verticalAlign=middle;whiteSpace=wrap;rounded=0;" parent="1" vertex="1">
          <mxGeometry x="554" y="396" width="240" height="30" as="geometry" />
        </mxCell>
        <mxCell id="ycxKqdY8osq5qBcFS2NJ-28" value="Лог изменений, одна дельта - один файл, или другой базовый юнит, который нельзя испортить мерджем гитом. плюс должен быть порядок" style="text;html=1;strokeColor=none;fillColor=none;align=center;verticalAlign=middle;whiteSpace=wrap;rounded=0;" parent="1" vertex="1">
          <mxGeometry x="554" y="490" width="240" height="30" as="geometry" />
        </mxCell>
        <mxCell id="ycxKqdY8osq5qBcFS2NJ-29" value="Решение будет завязано на гит - для работы с изменениями локально (обнаружение локальных изменений, ведение локальных версий, коммуникация дельт mldev)" style="text;html=1;strokeColor=none;fillColor=none;align=center;verticalAlign=middle;whiteSpace=wrap;rounded=0;" parent="1" vertex="1">
          <mxGeometry x="554" y="585" width="240" height="30" as="geometry" />
        </mxCell>
        <mxCell id="ycxKqdY8osq5qBcFS2NJ-31" value="Изменение 1" style="rounded=0;whiteSpace=wrap;html=1;" parent="1" vertex="1">
          <mxGeometry x="169" y="843" width="120" height="60" as="geometry" />
        </mxCell>
        <mxCell id="ycxKqdY8osq5qBcFS2NJ-32" value="Изменение 2" style="rounded=0;whiteSpace=wrap;html=1;" parent="1" vertex="1">
          <mxGeometry x="169" y="923" width="120" height="60" as="geometry" />
        </mxCell>
        <mxCell id="ycxKqdY8osq5qBcFS2NJ-33" value="Изменение 3" style="rounded=0;whiteSpace=wrap;html=1;" parent="1" vertex="1">
          <mxGeometry x="169" y="1003" width="120" height="60" as="geometry" />
        </mxCell>
        <mxCell id="ycxKqdY8osq5qBcFS2NJ-35" value="Пачка новых изменений от пользователя 2 к пользователю 1" style="text;html=1;strokeColor=none;fillColor=none;align=center;verticalAlign=middle;whiteSpace=wrap;rounded=0;" parent="1" vertex="1">
          <mxGeometry x="119" y="803" width="160" height="30" as="geometry" />
        </mxCell>
        <mxCell id="ycxKqdY8osq5qBcFS2NJ-36" value="Изменение 4" style="rounded=0;whiteSpace=wrap;html=1;" parent="1" vertex="1">
          <mxGeometry x="509" y="930.5" width="120" height="60" as="geometry" />
        </mxCell>
        <mxCell id="ycxKqdY8osq5qBcFS2NJ-37" value="Изменение 5" style="rounded=0;whiteSpace=wrap;html=1;" parent="1" vertex="1">
          <mxGeometry x="509" y="1010.5" width="120" height="60" as="geometry" />
        </mxCell>
        <mxCell id="ycxKqdY8osq5qBcFS2NJ-39" value="локлаьные изменения пользователя 1" style="text;html=1;strokeColor=none;fillColor=none;align=center;verticalAlign=middle;whiteSpace=wrap;rounded=0;" parent="1" vertex="1">
          <mxGeometry x="478" y="870.5" width="160" height="30" as="geometry" />
        </mxCell>
        <mxCell id="ycxKqdY8osq5qBcFS2NJ-40" value="Граф пользователя 1 локальный" style="rounded=0;whiteSpace=wrap;html=1;" parent="1" vertex="1">
          <mxGeometry x="524" y="1150.5" width="120" height="60" as="geometry" />
        </mxCell>
        <mxCell id="ycxKqdY8osq5qBcFS2NJ-41" value="" style="endArrow=classic;html=1;rounded=0;entryX=0.5;entryY=1;entryDx=0;entryDy=0;exitX=0.5;exitY=0;exitDx=0;exitDy=0;" parent="1" source="ycxKqdY8osq5qBcFS2NJ-40" target="ycxKqdY8osq5qBcFS2NJ-38" edge="1">
          <mxGeometry width="50" height="50" relative="1" as="geometry">
            <mxPoint x="684" y="1240.5" as="sourcePoint" />
            <mxPoint x="734" y="1190.5" as="targetPoint" />
          </mxGeometry>
        </mxCell>
        <mxCell id="ycxKqdY8osq5qBcFS2NJ-42" value="mldev delta" style="text;html=1;strokeColor=none;fillColor=none;align=center;verticalAlign=middle;whiteSpace=wrap;rounded=0;" parent="1" vertex="1">
          <mxGeometry x="594" y="1110.5" width="60" height="30" as="geometry" />
        </mxCell>
        <mxCell id="ycxKqdY8osq5qBcFS2NJ-44" value="" style="endArrow=classic;html=1;rounded=0;exitX=0.5;exitY=1;exitDx=0;exitDy=0;" parent="1" source="ycxKqdY8osq5qBcFS2NJ-34" edge="1">
          <mxGeometry width="50" height="50" relative="1" as="geometry">
            <mxPoint x="99" y="1213" as="sourcePoint" />
            <mxPoint x="309" y="1143" as="targetPoint" />
          </mxGeometry>
        </mxCell>
        <mxCell id="ycxKqdY8osq5qBcFS2NJ-45" value="" style="endArrow=classic;html=1;rounded=0;exitX=0.015;exitY=0.908;exitDx=0;exitDy=0;exitPerimeter=0;" parent="1" source="ycxKqdY8osq5qBcFS2NJ-38" edge="1">
          <mxGeometry width="50" height="50" relative="1" as="geometry">
            <mxPoint x="369" y="1103" as="sourcePoint" />
            <mxPoint x="379" y="1143" as="targetPoint" />
          </mxGeometry>
        </mxCell>
        <mxCell id="ycxKqdY8osq5qBcFS2NJ-46" value="Граф пользователя 2 локальный" style="rounded=0;whiteSpace=wrap;html=1;" parent="1" vertex="1">
          <mxGeometry x="109" y="1282.5" width="120" height="60" as="geometry" />
        </mxCell>
        <mxCell id="ycxKqdY8osq5qBcFS2NJ-47" value="" style="endArrow=classic;html=1;rounded=0;entryX=0.5;entryY=1;entryDx=0;entryDy=0;exitX=0.5;exitY=0;exitDx=0;exitDy=0;" parent="1" source="ycxKqdY8osq5qBcFS2NJ-46" edge="1">
          <mxGeometry width="50" height="50" relative="1" as="geometry">
            <mxPoint x="259" y="1232.5" as="sourcePoint" />
            <mxPoint x="159" y="1093" as="targetPoint" />
          </mxGeometry>
        </mxCell>
        <mxCell id="ycxKqdY8osq5qBcFS2NJ-48" value="mldev delta" style="text;html=1;strokeColor=none;fillColor=none;align=center;verticalAlign=middle;whiteSpace=wrap;rounded=0;" parent="1" vertex="1">
          <mxGeometry x="169" y="1102.5" width="60" height="30" as="geometry" />
        </mxCell>
        <mxCell id="ycxKqdY8osq5qBcFS2NJ-49" value="Новый список изменений для польз 1?" style="rounded=0;whiteSpace=wrap;html=1;" parent="1" vertex="1">
          <mxGeometry x="289" y="1142.5" width="120" height="60" as="geometry" />
        </mxCell>
        <mxCell id="ycxKqdY8osq5qBcFS2NJ-50" value="Общая начальная подпоследовательность? И все время поддерживаться? Тогда понятно, какие дельты передавать алгоритму" style="text;html=1;strokeColor=none;fillColor=none;align=center;verticalAlign=middle;whiteSpace=wrap;rounded=0;" parent="1" vertex="1">
          <mxGeometry x="455" y="783" width="190" height="30" as="geometry" />
        </mxCell>
        <mxCell id="ycxKqdY8osq5qBcFS2NJ-51" value="Передаем алгоритму два набора дельт? (отсчитывая от последней точки общей подпоследовательности), получаем что? 1) проверку на конфликты, 2) разрешение конфликтов, 3) новый список дельт" style="text;html=1;strokeColor=none;fillColor=none;align=center;verticalAlign=middle;whiteSpace=wrap;rounded=0;" parent="1" vertex="1">
          <mxGeometry x="383" y="1283" width="255" height="30" as="geometry" />
        </mxCell>
        <mxCell id="ycxKqdY8osq5qBcFS2NJ-53" value="Есть опасение - алгоритм может выдать &quot;ок, корректно&quot;, а применить не сможем - логика проверки\слияния дельт отделена от применения к графу" style="text;html=1;strokeColor=none;fillColor=none;align=center;verticalAlign=middle;whiteSpace=wrap;rounded=0;" parent="1" vertex="1">
          <mxGeometry x="383" y="1363" width="255" height="30" as="geometry" />
        </mxCell>
        <mxCell id="ycxKqdY8osq5qBcFS2NJ-54" value="Удаленно пользователь 2" style="text;html=1;strokeColor=none;fillColor=none;align=center;verticalAlign=middle;whiteSpace=wrap;rounded=0;" parent="1" vertex="1">
          <mxGeometry x="79" y="1350.5" width="110" height="30" as="geometry" />
        </mxCell>
        <mxCell id="ycxKqdY8osq5qBcFS2NJ-58" value="Локально пользователь 1" style="text;html=1;strokeColor=none;fillColor=none;align=center;verticalAlign=middle;whiteSpace=wrap;rounded=0;" parent="1" vertex="1">
          <mxGeometry x="109" y="740" width="110" height="30" as="geometry" />
        </mxCell>
        <mxCell id="ycxKqdY8osq5qBcFS2NJ-59" value="Альтернатива - к двум дельтам передавать весь &quot;общий&quot; граф (общая подпоследовательность)?" style="text;html=1;strokeColor=none;fillColor=none;align=center;verticalAlign=middle;whiteSpace=wrap;rounded=0;" parent="1" vertex="1">
          <mxGeometry x="379" y="1440" width="255" height="30" as="geometry" />
        </mxCell>
        <mxCell id="ycxKqdY8osq5qBcFS2NJ-60" value="" style="endArrow=classic;html=1;rounded=0;exitX=1;exitY=0.5;exitDx=0;exitDy=0;" parent="1" source="ycxKqdY8osq5qBcFS2NJ-49" target="ycxKqdY8osq5qBcFS2NJ-40" edge="1">
          <mxGeometry width="50" height="50" relative="1" as="geometry">
            <mxPoint x="519" y="1120" as="sourcePoint" />
            <mxPoint x="440" y="1185" as="targetPoint" />
          </mxGeometry>
        </mxCell>
        <mxCell id="ycxKqdY8osq5qBcFS2NJ-61" value="mldev delta" style="text;html=1;strokeColor=none;fillColor=none;align=center;verticalAlign=middle;whiteSpace=wrap;rounded=0;" parent="1" vertex="1">
          <mxGeometry x="440" y="1140.5" width="60" height="30" as="geometry" />
        </mxCell>
        <mxCell id="ycxKqdY8osq5qBcFS2NJ-62" value="извлечь" style="text;html=1;strokeColor=none;fillColor=none;align=center;verticalAlign=middle;whiteSpace=wrap;rounded=0;" parent="1" vertex="1">
          <mxGeometry x="528" y="1110.5" width="60" height="30" as="geometry" />
        </mxCell>
        <mxCell id="ycxKqdY8osq5qBcFS2NJ-63" value="применить" style="text;html=1;strokeColor=none;fillColor=none;align=center;verticalAlign=middle;whiteSpace=wrap;rounded=0;" parent="1" vertex="1">
          <mxGeometry x="440" y="1180.5" width="60" height="30" as="geometry" />
        </mxCell>
        <mxCell id="ycxKqdY8osq5qBcFS2NJ-64" value="слить" style="text;html=1;strokeColor=none;fillColor=none;align=center;verticalAlign=middle;whiteSpace=wrap;rounded=0;" parent="1" vertex="1">
          <mxGeometry x="364" y="1093" width="60" height="30" as="geometry" />
        </mxCell>
        <mxCell id="ycxKqdY8osq5qBcFS2NJ-65" value="скачать" style="text;html=1;strokeColor=none;fillColor=none;align=center;verticalAlign=middle;whiteSpace=wrap;rounded=0;" parent="1" vertex="1">
          <mxGeometry x="99" y="1142.5" width="60" height="30" as="geometry" />
        </mxCell>
        <mxCell id="ycxKqdY8osq5qBcFS2NJ-66" value="слить" style="text;html=1;strokeColor=none;fillColor=none;align=center;verticalAlign=middle;whiteSpace=wrap;rounded=0;" parent="1" vertex="1">
          <mxGeometry x="269" y="1100.5" width="60" height="30" as="geometry" />
        </mxCell>
      </root>
    </mxGraphModel>
  </diagram>
</mxfile>
